Network Analysis using R
…
The issue we want to investigate here relates to networks of personas in Shakespeare’s “Romeo and Juliet”.

# load data
romeo <- gutenberg_works(title == "Romeo and Juliet") %>%
  gutenberg_download(meta_fields = "title")
# inspect data
romeo

## # A tibble: 5,268 x 3
##    gutenberg_id text                         title           
##           <int> <chr>                        <chr>           
##  1         1513 "ROMEO AND JULIET"           Romeo and Juliet
##  2         1513 ""                           Romeo and Juliet
##  3         1513 "by William Shakespeare"     Romeo and Juliet
##  4         1513 ""                           Romeo and Juliet
##  5         1513 ""                           Romeo and Juliet
##  6         1513 ""                           Romeo and Juliet
##  7         1513 ""                           Romeo and Juliet
##  8         1513 "PERSONS REPRESENTED"        Romeo and Juliet
##  9         1513 ""                           Romeo and Juliet
## 10         1513 "Escalus, Prince of Verona." Romeo and Juliet
## # ... with 5,258 more rows
…
