Co-occurrence and Collocations
…
  dplyr::mutate(AllFreq = sum(TermCoocFreq)) %>%
  dplyr::group_by(Term) %>%
  dplyr::mutate(TermFreq = sum(TermCoocFreq)) %>%
  dplyr::ungroup(Term) %>%
  dplyr::group_by(CoocTerm) %>%
  dplyr::mutate(CoocFreq = sum(TermCoocFreq)) %>%
  dplyr::arrange(Term) %>%
  dplyr::mutate(a = TermCoocFreq,
                b = TermFreq - a,
                c = CoocFreq - a, 
                d = AllFreq - (a + b + c)) %>%
  dplyr::mutate(NRows = nrow(coocdf))
cooctb

## # A tibble: 1,493,284 x 11
## # Groups:   CoocTerm [1,222]
##    Term  CoocTerm TermCoocFreq AllFreq TermFreq CoocFreq     a     b     c     d
##    <fct> <fct>           <dbl>   <dbl>    <dbl>    <dbl> <dbl> <dbl> <dbl> <dbl>
##  1 aban~ ago                 0   55525       15      262     0    15   262 55248
##  2 aban~ american            0   55525       15      891     0    15   891 54619
##  3 aban~ citizen             0   55525       15      118     0    15   118 55392
##  4 aban~ comeback            0   55525       15       17     0    15    17 55493
##  5 aban~ congress            0   55525       15      352     0    15   352 55158
##  6 aban~ fellow              0   55525       15       27     0    15    27 55483
##  7 aban~ great               0   55525       15      160     0    15   160 55350
##  8 aban~ ladi                0   55525       15       78     0    15    78 55432
##  9 aban~ launch              0   55525       15       79     0    15    79 55431
## 10 aban~ madam               0   55525       15       17     0    15    17 55493
## # ... with 1,493,274 more rows, and 1 more variable: NRows <int>
…
## Source: local data frame [1,222 x 16]
## Groups: <by row>
## 
## # A tibble: 1,222 x 16
##    Term  CoocTerm TermCoocFreq AllFreq TermFreq CoocFreq     a     b     c     d
##    <fct> <fct>           <dbl>   <dbl>    <dbl>    <dbl> <dbl> <dbl> <dbl> <dbl>
##  1 amer~ ago                 2   55525      594      262     2   592   260 54671
##  2 amer~ american           10   55525      594      891    10   584   881 54050
##  3 amer~ citizen             3   55525      594      118     3   591   115 54816
##  4 amer~ comeback            0   55525      594       17     0   594    17 54914
##  5 amer~ congress            6   55525      594      352     6   588   346 54585
##  6 amer~ fellow              0   55525      594       27     0   594    27 54904
##  7 amer~ great               2   55525      594      160     2   592   158 54773
##  8 amer~ ladi                0   55525      594       78     0   594    78 54853
##  9 amer~ launch              1   55525      594       79     1   593    78 54853
## 10 amer~ madam               0   55525      594       17     0   594    17 54914
## # ... with 1,212 more rows, and 6 more variables: NRows <int>, p <dbl>,
## #   x2 <dbl>, phi <dbl>, expected <dbl>, Significance <chr>
…
  dplyr::mutate(corr001 = ((j/NRows)*0.001)) %>%
  # calculate corrected significance status
  dplyr::mutate(CorrSignificance = ifelse(p <= corr001, "p<.001",
                ifelse(p <= corr01, "p<.01",
                       ifelse(p <= corr05, "p<.05", "n.s.")))) %>%
  dplyr::mutate(p = round(p, 6)) %>%
  dplyr::mutate(x2 = round(x2, 1)) %>%
  dplyr::mutate(phi = round(phi, 2)) %>%
  dplyr::arrange(p) %>%
  dplyr::select(-a, -b, -c, -d, -j, -NRows, -corr05, -corr01, -corr001) %>%
  dplyr::mutate(Type = ifelse(expected > TermCoocFreq, "Antitype", "Type"))
# inspect results
coocStatz

## # A tibble: 1,222 x 13
##    Term  CoocTerm TermCoocFreq AllFreq TermFreq CoocFreq      p    x2   phi
##    <fct> <fct>           <dbl>   <dbl>    <dbl>    <dbl>  <dbl> <dbl> <dbl>
##  1 amer~ america            30   55525      594      594 0       86.1  0.04
##  2 amer~ god                 4   55525      594       93 0.0179   6.4  0.01
##  3 amer~ bear                2   55525      594       21 0.0210   7.3  0.01
##  4 amer~ war                 3   55525      594       55 0.0212   6.3  0.01
##  5 amer~ destini             2   55525      594       23 0.0249   6.5  0.01
##  6 amer~ pray                2   55525      594       23 0.0249   6.5  0.01
##  7 amer~ place               4   55525      594      106 0.0274   5    0.01
##  8 amer~ embrac              2   55525      594       25 0.0291   5.7  0.01
##  9 amer~ extraor~            3   55525      594       65 0.0326   4.7  0.01
## 10 amer~ back                5   55525      594      182 0.0468   3.4  0.01
## # ... with 1,212 more rows, and 4 more variables: expected <dbl>,
## #   Significance <chr>, CorrSignificance <chr>, Type <chr>

6 Extracting a collocation network

Now that we have determined which words collocate with the key term (collocterm), we extract the collocation network.

colloctermtb <- cooctb %>%
  dplyr::filter(Term == collocterm,
                TermCoocFreq > 0)
colloctermtb

## # A tibble: 388 x 11
## # Groups:   CoocTerm [388]
##    Term  CoocTerm TermCoocFreq AllFreq TermFreq CoocFreq     a     b     c     d
##    <fct> <fct>           <dbl>   <dbl>    <dbl>    <dbl> <dbl> <dbl> <dbl> <dbl>
##  1 amer~ ago                 2   55525      594      262     2   592   260 54671
##  2 amer~ american           10   55525      594      891    10   584   881 54050
##  3 amer~ citizen             3   55525      594      118     3   591   115 54816
##  4 amer~ congress            6   55525      594      352     6   588   346 54585
##  5 amer~ great               2   55525      594      160     2   592   158 54773
##  6 amer~ launch              1   55525      594       79     1   593    78 54853
##  7 amer~ member              2   55525      594      145     2   592   143 54788
##  8 amer~ presid              2   55525      594      125     2   592   123 54808
##  9 amer~ state               5   55525      594      442     5   589   437 54494
## 10 amer~ unit                4   55525      594      349     4   590   345 54586
## # ... with 378 more rows, and 1 more variable: NRows <int>
…
