Case Studies & Use Cases
…
FUCK and its variants is by far the most common swear word in our corpus. However, we do not need the type of swear word to answer our research question and we thus summarize the table to show which speaker in which files has used how many swear words.

swire <- swire %>%
  group_by(File, Speaker) %>%
  summarise(Swearwords = n())
# inspect data
swire

## # A tibble: 22 x 3
## # Groups:   File [10]
##    File    Speaker Swearwords
##    <chr>   <chr>        <int>
##  1 S1A-003 A                1
##  2 S1A-005 A                1
##  3 S1A-005 B               10
##  4 S1A-005 C                1
##  5 S1A-010 A                2
##  6 S1A-011 A                2
##  7 S1A-011 B                3
##  8 S1A-014 B                2
##  9 S1A-014 C                3
## 10 S1A-014 D                2
## # ... with 12 more rows
…
