Processing and Analyzing Eye-Tracking Data in R
…
datls <- lapply(fls, function(x){
  name <- x
  x <- readxl::read_xlsx(x) %>%
    # create id column (contains path)
    dplyr::mutate(idname = name) %>%
    # code trial
    dplyr::mutate(trial = stringr::str_remove_all(name, ".*collection-"))  %>%
    dplyr::mutate(trial = stringr::str_remove_all(trial, "-.*"))
  })
# inspect data
head(datls[1])

## [[1]]
## # A tibble: 295 x 25
##    `0`   filename participant_id spreadsheet_row time_stamp time_elapsed type 
##    <lgl> <chr>             <dbl>           <dbl>      <dbl>        <dbl> <chr>
##  1 NA    eyetrac~        3699461              16    1.62e12          0   new ~
##  2 NA    eyetrac~        3699461              16    1.62e12          0   zone 
##  3 NA    eyetrac~        3699461              16    1.62e12          0   zone 
##  4 NA    eyetrac~        3699461              16    1.62e12          0   zone 
##  5 NA    eyetrac~        3699461              16    1.62e12          0   zone 
##  6 NA    eyetrac~        3699461              16    1.62e12          0   zone 
##  7 NA    eyetrac~        3699461              16    1.62e12          0   zone 
##  8 NA    eyetrac~        3699461              16    1.62e12          0   pred~
##  9 NA    eyetrac~        3699461              16    1.62e12         17.3 pred~
## 10 NA    eyetrac~        3699461              16    1.62e12         33.3 pred~
## # ... with 285 more rows, and 18 more variables: screen_index <dbl>,
## #   x_pred <dbl>, y_pred <dbl>, x_pred_normalised <dbl>,
## #   y_pred_normalised <dbl>, convergence <dbl>, face_conf <dbl>,
## #   zone_name <chr>, zone_x <dbl>, zone_y <dbl>, zone_width <dbl>,
## #   zone_height <dbl>, zone_x_normalised <dbl>, zone_y_normalised <dbl>,
## #   zone_width_normalised <dbl>, zone_height_normalised <dbl>, idname <chr>,
## #   trial <chr>
…
In a next step, we specify the window that we want to inspect (in our case, we want to check the window starting at 1600 ms and ending at 2200 ms).

# subset to response window post word-onset
response_window <- subset_by_window(data, 
                                    window_start_time = 1600, 
                                    window_end_time = 2200, 
                                    rezero = FALSE)

# analyze amount of trackloss by subjects and trials
(trackloss <- trackloss_analysis(data = response_window))

## # A tibble: 54 x 6
##    participant_id trial Samples TracklossSamples TracklossForTri~
##    <fct>          <fct>   <dbl>            <dbl>            <dbl>
##  1 3699461        1          32                1           0.0312
##  2 3699461        10         33                0           0     
##  3 3699461        11         33                0           0     
##  4 3699461        12         32                0           0     
##  5 3699461        13         36                0           0     
##  6 3699461        14         32                0           0     
##  7 3699461        15         34                0           0     
##  8 3699461        16         34                2           0.0588
##  9 3699461        17         36                0           0     
## 10 3699461        18         34                0           0     
## # ... with 44 more rows, and 1 more variable: TracklossForParticipant <dbl>
…
