Getting started with R - for (absolute) beginners
…
To load text data from the web, we can use the read_file function which takes the URL of the text as its first argument. In this case will will load the 2016 rally speeches Donald Trump.

Trump <- read_file("https://slcladal.github.io/data/Trump.txt")
# inspect data
str(Trump)

##  chr "?SPEECH 1\n...Thank you so much.  That's so nice.  Isn't he a great guy.  He doesn't get a fair press; he doesn"| __truncated__

It is very easy to extract frequency information and to create frequency lists. We can do this by first using the unnest_tokens function which splits texts into individual words, an then use the count function to get the raw frequencies of all word types in a text.

tibble(text = Trump) %>%
  unnest_tokens(word, text) %>%
  count(word, sort=T)

## # A tibble: 5,981 x 2
##    word      n
##    <chr> <int>
##  1 i      6156
##  2 the    5924
##  3 to     5460
##  4 and    5438
##  5 we     3774
##  6 a      3592
##  7 it     3550
##  8 you    3476
##  9 they   3007
## 10 of     2953
## # ... with 5,971 more rows

Extracting N-grams is also very easy as the unnest_tokens function can an argument called token in which we can specify that we want to extract n-grams, If we do this, then we need to specify the n as a separate argument. Below we specify that we want the frequencies of all 4-grams.

tibble(text = Trump) %>%
  unnest_tokens(word, text, token="ngrams", n=4) %>%
  count(word, sort=T)

## # A tibble: 145,727 x 2
##    word                 n
##    <chr>            <int>
##  1 we re going to     552
##  2 i m going to       122
##  3 i don t know       110
##  4 they re going to   105
##  5 it s going to      103
##  6 you re going to    102
##  7 and we re going     94
##  8 s going to be       90
##  9 re going to have    88
## 10 i don t want        87
## # ... with 145,717 more rows
…
