Computational Literary Stylistics with R
…
Identifying Keywords

The problem underlying the identification of keywords is to figure out the importance of words in each document. We can assign weights to words that are more characteristic for a text if these terms are used more frequently than expected in a given text. We can then show terms ordered by their relative weight. Using the bind_tf_idf() function from the tidytext package, we can extract tf-idf scores which represent these relative weights and we can also report other parameters such as number of occurrences of that word, total number of words and term frequency.

book_words <- austen_books() %>%
  tidytext::unnest_tokens(word, text) %>%
  dplyr::count(book, word, sort = TRUE) %>% 
  dplyr::group_by(book) %>% 
  dplyr::mutate(total = sum(n))
book_tf_idf <- book_words %>%
  tidytext::bind_tf_idf(word, book, n)
# inspect data
book_tf_idf

## # A tibble: 40,379 x 7
## # Groups:   book [6]
##    book              word      n  total     tf   idf tf_idf
##    <fct>             <chr> <int>  <int>  <dbl> <dbl>  <dbl>
##  1 Mansfield Park    the    6206 160460 0.0387     0      0
##  2 Mansfield Park    to     5475 160460 0.0341     0      0
##  3 Mansfield Park    and    5438 160460 0.0339     0      0
##  4 Emma              to     5239 160996 0.0325     0      0
##  5 Emma              the    5201 160996 0.0323     0      0
##  6 Emma              and    4896 160996 0.0304     0      0
##  7 Mansfield Park    of     4778 160460 0.0298     0      0
##  8 Pride & Prejudice the    4331 122204 0.0354     0      0
##  9 Emma              of     4291 160996 0.0267     0      0
## 10 Pride & Prejudice to     4162 122204 0.0341     0      0
## # ... with 40,369 more rows

From the above table it is evident that the extremely common words have a very low inverse document frequency and thus a low tf-idf score. The inverse document frequency will be a higher number for words that occur in fewer documents in the collection of novels.

book_tf_idf %>%
  dplyr::select(-total) %>%
  dplyr::arrange(desc(tf_idf))

## # A tibble: 40,379 x 6
## # Groups:   book [6]
##    book                word          n      tf   idf  tf_idf
##    <fct>               <chr>     <int>   <dbl> <dbl>   <dbl>
##  1 Sense & Sensibility elinor      623 0.00519  1.79 0.00931
##  2 Sense & Sensibility marianne    492 0.00410  1.79 0.00735
##  3 Mansfield Park      crawford    493 0.00307  1.79 0.00551
##  4 Pride & Prejudice   darcy       373 0.00305  1.79 0.00547
##  5 Persuasion          elliot      254 0.00304  1.79 0.00544
##  6 Emma                emma        786 0.00488  1.10 0.00536
##  7 Northanger Abbey    tilney      196 0.00252  1.79 0.00452
##  8 Emma                weston      389 0.00242  1.79 0.00433
##  9 Pride & Prejudice   bennet      294 0.00241  1.79 0.00431
## 10 Persuasion          wentworth   191 0.00228  1.79 0.00409
## # ... with 40,369 more rows
…
\[\begin{equation}
f(k;s,N)={\frac {1/k^{s}}{\sum \limits _{n=1}^{N}(1/n^{s})}} 
\end{equation}\]

In the code chunk below, we check if Zipf’s Law applies to the words that occur in Jane Austen’s novels.

freq_by_rank <- book_words %>% 
  dplyr::group_by(book) %>% 
  dplyr::mutate(rank = row_number(), 
         `term frequency` = n/total) %>%
  dplyr::ungroup()
# inspect data
freq_by_rank

## # A tibble: 40,379 x 6
##    book              word      n  total  rank `term frequency`
##    <fct>             <chr> <int>  <int> <int>            <dbl>
##  1 Mansfield Park    the    6206 160460     1           0.0387
##  2 Mansfield Park    to     5475 160460     2           0.0341
##  3 Mansfield Park    and    5438 160460     3           0.0339
##  4 Emma              to     5239 160996     1           0.0325
##  5 Emma              the    5201 160996     2           0.0323
##  6 Emma              and    4896 160996     3           0.0304
##  7 Mansfield Park    of     4778 160460     4           0.0298
##  8 Pride & Prejudice the    4331 122204     1           0.0354
##  9 Emma              of     4291 160996     4           0.0267
## 10 Pride & Prejudice to     4162 122204     2           0.0341
## # ... with 40,369 more rows
…
