Reinforcement Learning in NLP
…
url <- "http://time.com/5196761/fitbit-ace-kids-fitness-tracker/"
article <- read_html(url) %>%
  html_nodes('div[class="padded"]') %>%
  html_text()

Next the article is loaded into a tibble. Then tokenisation is implemented according to sentences. Although this tokenisation is fully perfect it has a lower number of dependencies and is suitable for this case. Finally we add column for sentence number and switch the order of the columns.

article_sentences <- tibble(text = article) %>%
  unnest_tokens(sentence, text, token = "sentences") %>%
  mutate(sentence_id = row_number()) %>%
  select(sentence_id, sentence)
article_sentences

## # A tibble: 30 x 2
##    sentence_id sentence                                                         
##          <int> <chr>                                                            
##  1           1 fitbit is launching a new fitness tracker designed for children ~
##  2           2 the fitbit ace looks a lot like the company’s alta tracker, but ~
##  3           3 the most important of which is fitbit’s new family account optio~
##  4           4 parents must approve who their child can connect with via the fi~
##  5           5 like many of fitbit’s other products, the fitbit ace can automat~
##  6           6 but while fitbit’s default move goal is 30 minutes for adult use~
##  7           7 fitbit says the tracker is designed for children eight years old~
##  8           8 fitbit will also be introducing a family faceoff feature that le~
##  9           9 the app also will reward children with in-app badges for achievi~
## 10          10 fitbit’s new child-friendly fitness band will be available in bl~
## # ... with 20 more rows

Next we will tokenize based on words.

article_words <- article_sentences %>%
  unnest_tokens(word, sentence)
article_words

## # A tibble: 594 x 2
##    sentence_id word     
##          <int> <chr>    
##  1           1 fitbit   
##  2           1 is       
##  3           1 launching
##  4           1 a        
##  5           1 new      
##  6           1 fitness  
##  7           1 tracker  
##  8           1 designed 
##  9           1 for      
## 10           1 children 
## # ... with 584 more rows

We have one last step left is to remove the stop words in article_words as they are prone to result in redundancy.

article_words <- article_words %>%
  anti_join(stop_words, by = "word")
article_words

## # A tibble: 282 x 2
##    sentence_id word     
##          <int> <chr>    
##  1           1 fitbit   
##  2           1 launching
##  3           1 fitness  
##  4           1 tracker  
##  5           1 designed 
##  6           1 children 
##  7           1 called   
##  8           1 fitbit   
##  9           1 ace      
## 10           1 sale     
## # ... with 272 more rows
…
