Text Analysis and Distant Reading using R
…
## A LDA_VEM topic model with 3 topics.

We can now inspect which words are particularly associated with which topic.

# load library
library(tidytext)
# convert data into tidy format
textstopics <- tidy(textslda, matrix = "beta")
textstopics

## # A tibble: 61,596 x 3
##    topic term            beta
##    <int> <chr>          <dbl>
##  1     1 abdomen    4.99e-108
##  2     2 abdomen    2.19e-  5
##  3     3 abdomen    5.34e-163
##  4     1 aberrant   9.46e-108
##  5     2 aberrant   7.66e-  5
##  6     3 aberrant   7.53e-163
##  7     1 aberration 2.96e-108
##  8     2 aberration 2.19e-  5
##  9     3 aberration 5.88e-163
## 10     1 abhorrent  2.18e-108
## # ... with 61,586 more rows
…
