Computational Literary Stylistics with R
…
Doyle
to
2,744
105,378
0.0260395908064
0
0

From the above table it is evident that the extremely common words have a very low inverse document frequency and thus a low tf-idf score. The inverse document frequency will be a higher number for words that occur in fewer documents in the collection of novels.

book_tf_idf %>%
  dplyr::select(-total) %>%
  dplyr::arrange(desc(tf_idf))

## # A tibble: 33,855 × 6
## # Groups:   book [6]
##    book        word          n      tf   idf  tf_idf
##    <fct>       <chr>     <int>   <dbl> <dbl>   <dbl>
##  1 Shakespeare romeo       300 0.0115   1.79 0.0206 
##  2 Poe         nevermore    11 0.0100   1.79 0.0180 
##  3 Twain       tom         722 0.01     1.79 0.0179 
##  4 Darwin      species    1546 0.00985  1.79 0.0176 
##  5 Poe         lenore        8 0.00730  1.79 0.0131 
##  6 Shakespeare juliet      178 0.00681  1.79 0.0122 
##  7 Poe         raven        11 0.0100   1.10 0.0110 
##  8 Shakespeare capulet     141 0.00540  1.79 0.00967
##  9 Austen      elizabeth   596 0.00487  1.79 0.00873
## 10 Doyle       holmes      462 0.00438  1.79 0.00786
## # … with 33,845 more rows
…
