Topic Modelling of Charles Dickens’ novels
…
First, we can check out which of Dickens’ texts are available on
Gutenberg:

dickens <- gutenberg_works(author == "Dickens, Charles")

The command accesses a table of Gutenberg work metadata, in this case
specifically only for works authored by one Dickens, Charles”. We
save this table to a variable called, tellingly, dickens”. Let’s
take a look at it:

dickens

## # A tibble: 78 × 8
##    gutenberg_id title    author gutenberg_author_id language gutenberg_bookshelf
##           <int> <chr>    <chr>                <int> <chr>    <chr>              
##  1           46 "A Chri… Dicke…                  37 en       Children's Literat…
##  2           98 "A Tale… Dicke…                  37 en       Historical Fiction 
##  3          564 "The My… Dicke…                  37 en       Mystery Fiction    
##  4          580 "The Pi… Dicke…                  37 en       Best Books Ever Li…
##  5          588 "Master… Dicke…                  37 en       <NA>               
##  6          644 "The Ha… Dicke…                  37 en       Christmas          
##  7          650 "Pictur… Dicke…                  37 en       <NA>               
##  8          653 "The Ch… Dicke…                  37 en       <NA>               
##  9          675 "Americ… Dicke…                  37 en       <NA>               
## 10          676 "The Ba… Dicke…                  37 en       Christmas          
## # ℹ 68 more rows
## # ℹ 2 more variables: rights <chr>, has_text <lgl>
…
## Using mirror http://aleph.gutenberg.org

With this, we download the eight novels, saving them to a data frame
with one row per line per work, as well as the additional metadata of
the title of each work. If one were working with works by different
authors, it might make sense to include the author names - but since we
don’t, we won’t.

Taking a look at the dickens_corpus object is not yet
very meaningful:

dickens_corpus

## # A tibble: 182,668 × 3
##    gutenberg_id text                         title                              
##           <int> <chr>                        <chr>                              
##  1           46 "A CHRISTMAS CAROL"          A Christmas Carol in Prose; Being …
##  2           46 ""                           A Christmas Carol in Prose; Being …
##  3           46 "IN PROSE"                   A Christmas Carol in Prose; Being …
##  4           46 "BEING"                      A Christmas Carol in Prose; Being …
##  5           46 "A Ghost Story of Christmas" A Christmas Carol in Prose; Being …
##  6           46 ""                           A Christmas Carol in Prose; Being …
##  7           46 "by Charles Dickens"         A Christmas Carol in Prose; Being …
##  8           46 ""                           A Christmas Carol in Prose; Being …
##  9           46 ""                           A Christmas Carol in Prose; Being …
## 10           46 ""                           A Christmas Carol in Prose; Being …
## # ℹ 182,658 more rows
…
